[
 "Abigail",
 "Alexandra",
 "Alexis",
 "Allison",
 "Alyssa",
 "Anna",
 "Ashley",
 "Chloe",
 "Destiny",
 "Elizabeth",
 "Ella",
 "Emily",
 "Emma",
 "Grace",
 "Haley",
 "Hannah",
 "Isabella",
 "Jasmine",
 "Jennifer",
 "Jessica",
 "Julia",
 "Kaitlyn",
 "Katherine",
 "Kayla",
 "Kaylee",
 "Lauren",
 "Lily",
 "Madison",
 "Megan",
 "Mia",
 "Morgan",
 "Natalie",
 "Olivia",
 "Rachel",
 "Samantha",
 "Sarah",
 "Sophia",
 "Sydney",
 "Taylor",
 "Victoria"
]