[
 "\t",
 "Alex",
 "Alexander",
 "Andrew",
 "Austin",
 "Brandon",
 "Brian",
 "Bryan\r",
 "Caleb",
 "Cameron",
 "Carlos",
 "Charles",
 "Christian",
 "Connor",
 "Daniel",
 "David",
 "Dylan",
 "Eric",
 "Ethan",
 "Evan",
 "Hunter",
 "Ian",
 "Jack",
 "Jackson",
 "Jacob",
 "James",
 "Jason",
 "Jayden",
 "John",
 "Jordan",
 "Jose",
 "Justin",
 "Kevin",
 "Kyle",
 "Logan",
 "Luke",
 "Mason",
 "Matthew",
 "Michael",
 "Nathan",
 "Robert",
 "Ryan",
 "Samuel",
 "Sean",
 "Thomas",
 "Tyler",
 "William",
 "Zachary"
]