[
 "Aaron",
 "Adam",
 "Adrian",
 "Aitor",
 "Alberto",
 "Alejandro",
 "Alejandro",
 "Alex",
 "Alexander",
 "Alvaro",
 "Angel",
 "Antonio",
 "Carlos",
 "Daniel",
 "Daniel",
 "Dario",
 "David",
 "David",
 "Diego",
 "Diego",
 "Eduardo",
 "Emiliano",
 "Emmanuel",
 "Eric",
 "Fernando",
 "Francisco",
 "Gabriel",
 "Gonzalo",
 "Guillermo",
 "Hector",
 "Hugo",
 "Iker",
 "Ivan",
 "Izan",
 "Jaime",
 "Javier",
 "Jonathan",
 "Jorge",
 "Jose",
 "Juan",
 "Leonardo",
 "Lucas",
 "Manuel",
 "Marc",
 "Marcos",
 "Mario",
 "Martin",
 "Mateo",
 "Mateo",
 "Matías",
 "Maximiliano",
 "Miguel",
 "Nicolas",
 "Oscar",
 "Pablo",
 "Pau",
 "Pedro",
 "Raul",
 "Ricardo",
 "Rodrigo",
 "Rodrigo",
 "Ruben",
 "Samuel",
 "Santiago",
 "Sebastián",
 "Sergio",
 "Victor"
]