[
 "Aguilar",
 "Alonso",
 "Alvarez",
 "Arias",
 "Benitez",
 "Blanco",
 "Bravo",
 "Caballero",
 "Cabrera",
 "Calvo",
 "Campos",
 "Cano",
 "Carmona",
 "Carrasco",
 "Castillo",
 "Castro",
 "Cortes",
 "Crespo",
 "Cruz",
 "Delgado",
 "Diaz",
 "Diez",
 "Dominguez",
 "Duran",
 "Esteban",
 "Fernandez",
 "Ferrer",
 "Flores",
 "Fuentes",
 "Gallardo",
 "Gallego",
 "Garcia",
 "Garrido",
 "Gil",
 "Gimenez",
 "Gomez",
 "Gonzalez",
 "Guerrero",
 "Gutierrez",
 "Hernandez",
 "Herrera",
 "Herrero",
 "Hidalgo",
 "Ibañez",
 "Iglesias",
 "Jimenez",
 "Leon",
 "Lopez",
 "Lorenzo",
 "Lozano",
 "Marin",
 "Marquez",
 "Martin",
 "Martinez",
 "Medina",
 "Mendez",
 "Molina",
 "Montero",
 "Mora",
 "Morales",
 "Moreno",
 "Moya",
 "Muñoz",
 "Navarro",
 "Nieto",
 "Nuñez",
 "Ortega",
 "Ortiz",
 "Parra",
 "Pascual",
 "Pastor",
 "Perez",
 "Peña",
 "Prieto",
 "Ramirez",
 "Ramos",
 "Reyes",
 "Rodriguez",
 "Rojas",
 "Roman",
 "Romero",
 "Rubio",
 "Ruiz",
 "Saez",
 "Sanchez",
 "Santana",
 "Santiago",
 "Santos",
 "Sanz",
 "Serrano",
 "Soler",
 "Soto",
 "Suarez",
 "Torres",
 "Vargas",
 "Vazquez",
 "Vega",
 "Velasco",
 "Vicente",
 "Vidal"
]