Asian Cities

TAGS asia map xmap cities

SHARED On the map is highlighted

EASY
MAP eas MARK 31.228611;121.474722
Shanghai

MAP was MARK 24.86;67.01
Karachi

MAP eas MARK 39.916667;116.383333
Beijing

MAP was MARK 28.61;77.23
Delhi

MAP eas MARK 35.689722;139.692222
Tokyo

MAP eas MARK 22.3;114.2
Hong Kong

MAP was MARK 23.763889;90.388889
Dhaka

MAP was MARK 18.975;72.825833
Mumbai

MAP eas MARK -6.2;106.816667
Jakarta

MAP eas MARK 14.5958;120.9772
Manila

MAP eas MARK 10.8;106.65
Ho Chi Minh City

MAP was MARK 35.689167;51.388889
Tehran

MAP eas MARK 13.7525;100.494167
Bangkok

MAP eas MARK 37.566667;126.966667
Seoul

MAP was MARK 33.333333;44.383333
Baghdad

MAP eas MARK 1.283333;103.833333
Singapore

MEDIUM
MAP eas MARK 34.693889;135.502222
Osaka

MAP eas MARK 35.444167;139.638056
Yokohama

MAP eas MARK 35.011667;135.768333
Kyoto

MAP eas MARK 23.132;113.266
Guangzhou

MAP eas MARK 39.133333;117.183333
Tianjin

MAP eas MARK 29.558333;106.566667
Chongqing

MAP was MARK 22.5726;88.3639
Kolkata

MAP was MARK 13.083333;80.266667
Chennai (Madras)

MAP was MARK 31.549722;74.343611
Lahore

MAP eas MARK 10.8;106.65
Hanoi

MAP eas MARK 19.75;96.1
Naypyidaw

MAP eas MARK 35.166667;129.066667
Busan

MAP was MARK 34.525278;69.178333
Kabul

MAP was MARK 41.3;69.266667
Tashkent

MAP eas MARK 3.147778;101.695278
Kuala Lumpur

MAP eas MARK 27.766667;85.266667
Kathmandu

MAP was MARK 24.633333;46.716667
Riyadh

MAP was MARK 15.348333;44.206389
Sanaʽa

MAP eas MARK 39.019444;125.738056
Pyongyang

MAP eas MARK 25.066667;121.516667
Taipei

MAP was MARK 43.2775;76.895833
Almaty

MAP was MARK 36.216667;37.166667
Aleppo

MAP was MARK 24.466667;54.366667
Abu Dhabi

MAP was MARK 31.783333;35.216667
Jerusalem

MAP was MARK 31.949722;35.932778
Amman

MAP was MARK 42.874722;74.612222
Bishkek

MAP was MARK 37.933333;58.366667
Ashgabat

MAP was MARK 33.886944;35.513056
Beirut

MAP was MARK 23.588889;58.408333
Muscat

MAP was MARK 29.366667;47.966667
Kuwait

MAP was MARK 41.716667;44.783333
Tbilisi

MAP eas MARK 47.920278;106.917222
Ulaanbaatar

MAP was MARK 40.183333;44.516667
Yerevan

HARD
MAP was MARK 40.395278;49.882222
Baku

MAP was MARK 38.536667;68.78
Dushanbe

MAP eas MARK 11.569444;104.921111
Phnom Penh

MAP eas MARK 17.966667;102.6
Vientiane

MAP was MARK 25.286667;51.533333
Doha

MAP eas MARK 4.890278;114.942222
Bandar Seri Begawan

MAP eas MARK -8.566667;125.566667
Dili

MAP was MARK 26.216667;50.583333
Manama

MAP was MARK 27.472222;89.636111
Thimphu

MAP was MARK 4.175278;73.508889
Malé

MAP was MARK 6.9;79.916389
Sri Jayawardenepura Kotte

MAP eas MARK 35.183333;136.9
Nagoya

MAP eas MARK 43.066667;141.35
Sapporo

MAP eas MARK 33.583333;130.4
Fukuoka

MAP eas MARK 22.55;114.1
Shenzhen

MAP eas MARK 30.583333;114.283333
Wuhan

MAP eas MARK 32.05;118.766667
Nanjing

MAP eas MARK 12.983333;77.583333
Bangalore

MAP was MARK 21.17024;72.831061
Surat

MAP eas MARK 17.37;78.48
Hyderabad

MAP eas MARK -7.265278;112.7425
Surabaya

MAP eas MARK 14.63;121.03
Quezon City

MAP was MARK 36.3;59.6
Mashhad

MAP was MARK 32.644722;51.6675
Isfahan

MAP eas MARK 16.85;96.183333
Yangon

MAP eas MARK 21.975;96.083333
Mandalay

MAP eas MARK 37.483333;126.633333
Incheon

MAP was MARK 31.616667;65.716667
Kandahar

MAP was MARK 30.5;47.816667
Basra

MAP was MARK 36.34;43.13
Mosul

MAP was MARK 39.7;66.983333
Samarkand

MAP was MARK 24.466667;39.6
Medina

MAP was MARK 33.513056;36.291944
Damascus

MAP was MARK 34.730833;36.709444
Homs

MAP was MARK 25.263056;55.297222
Dubai

MAP was MARK 32.066667;34.783333
Tel Aviv

MAP was MARK 34.433333;35.85
Tripoli